{
    "telemetry.machineId": "085085fa3938affb062a5be0ac20c71f19e0e02ec798369aa69143759be23804",
    "theme": "vs-dark",
    "themeBackground": "#1e1e1e",
    "pickerWorkingDir": "/home/kostis/Documents/react-lewagon",
    "openedPathsList": {
        "workspaces2": [
            "file:///home/kostis/Documents/react-lewagon/airbnb-clone"
        ],
        "files2": []
    },
    "windowsState": {
        "openedWindows": [],
        "lastActiveWindow": {
            "folderUri": {
                "$mid": 1,
                "fsPath": "/home/kostis/Documents/react-lewagon/airbnb-clone",
                "external": "file:///home/kostis/Documents/react-lewagon/airbnb-clone",
                "path": "/home/kostis/Documents/react-lewagon/airbnb-clone",
                "scheme": "file"
            },
            "backupPath": "/home/kostis/Documents/react-lewagon/airbnb-clone/~/.vscode-root/Backups/d81b6258268a92b6b77076c50e11c1c0",
            "uiState": {
                "mode": 0,
                "x": 253,
                "y": 1112,
                "width": 1366,
                "height": 688
            }
        }
    }
}